module gcomlite

go 1.18

require github.com/labstack/echo/v4 v4.9.0

require golang.org/x/exp v0.0.0-20221028150844-83b7d23a625f // indirect

require (
	github.com/davecgh/go-spew v1.1.1 // indirect
	github.com/labstack/gommon v0.3.1 // indirect
	github.com/mattn/go-colorable v0.1.11 // indirect
	github.com/mattn/go-isatty v0.0.14 // indirect
	github.com/mattn/go-sqlite3 v1.14.16
	github.com/pmezard/go-difflib v1.0.0 // indirect
	github.com/stretchr/testify v1.8.0 // indirect
	github.com/valyala/bytebufferpool v1.0.0 // indirect
	github.com/valyala/fasttemplate v1.2.1 // indirect
	golang.org/x/crypto v0.0.0-20210817164053-32db794688a5 // indirect
	golang.org/x/net v0.0.0-20211015210444-4f30a5c0130f // indirect
	golang.org/x/sys v0.1.0 // indirect
	golang.org/x/text v0.3.7 // indirect
	gopkg.in/yaml.v3 v3.0.1 // indirect
)
